{"models":[{"id":"google:gemini-1-5-flash-8b","slug":"google-gemini-1.5-flash-8b","name":"Gemini 1.5 Flash-8B","provider":"Google","description":"Gemini 1.5 Flash-8B - Intelligence: 80, Speed: 250","source":"artificial-analysis","detailedSource":"api","dataLastVerified":"2025-09-21T02:51:25.830Z","dataConfidence":1,"aa":{"intelligence":80,"speed":250,"rank":1,"inputPrice":0,"outputPrice":0,"contextWindow":1048576,"category":"efficient","trend":"stable","lastUpdated":"2025-09-21T02:51:25.830Z","dataSource":"api"},"intelligence":80,"speed":250,"priceInput":0,"priceOutput":0,"contextWindow":1048576,"status":"operational","modalities":["text"],"capabilities":["chat","completion"],"isActive":true,"rankScore":1,"lastUpdated":"2025-09-21T02:51:25.830Z"},{"id":"google:gemini-1-5-pro","slug":"google-gemini-1.5-pro","name":"Gemini 1.5 Pro","provider":"Google","description":"Gemini 1.5 Pro - Intelligence: 80, Speed: 187","source":"artificial-analysis","detailedSource":"api","dataLastVerified":"2025-09-21T02:51:25.652Z","dataConfidence":1,"aa":{"intelligence":80,"speed":187,"rank":2,"inputPrice":0,"outputPrice":0,"contextWindow":2097152,"category":"efficient","trend":"stable","lastUpdated":"2025-09-21T02:51:25.652Z","dataSource":"api"},"intelligence":80,"speed":187,"priceInput":0,"priceOutput":0,"contextWindow":2097152,"status":"operational","modalities":["text"],"capabilities":["chat","completion"],"isActive":true,"rankScore":2,"lastUpdated":"2025-09-21T02:51:25.652Z"},{"id":"anthropic:claude-3-5-sonnet","slug":"anthropic-claude-3-5-sonnet-20241022","name":"Claude 3.5 Sonnet","provider":"Anthropic","description":"Claude 3.5 Sonnet - Intelligence: 80, Speed: 85","source":"artificial-analysis","detailedSource":"api","dataLastVerified":"2025-09-21T02:51:25.398Z","dataConfidence":1,"aa":{"intelligence":80,"speed":85,"rank":3,"inputPrice":0.003,"outputPrice":0.015,"contextWindow":200000,"category":"balanced","trend":"stable","lastUpdated":"2025-09-21T02:51:25.398Z","dataSource":"api"},"intelligence":80,"speed":85,"priceInput":0.003,"priceOutput":0.015,"contextWindow":200000,"status":"operational","modalities":["text"],"capabilities":["chat","completion"],"isActive":true,"rankScore":3,"lastUpdated":"2025-09-21T02:51:25.398Z"}],"data":[{"id":"google:gemini-1-5-flash-8b","slug":"google-gemini-1.5-flash-8b","name":"Gemini 1.5 Flash-8B","provider":"Google","description":"Gemini 1.5 Flash-8B - Intelligence: 80, Speed: 250","source":"artificial-analysis","detailedSource":"api","dataLastVerified":"2025-09-21T02:51:25.830Z","dataConfidence":1,"aa":{"intelligence":80,"speed":250,"rank":1,"inputPrice":0,"outputPrice":0,"contextWindow":1048576,"category":"efficient","trend":"stable","lastUpdated":"2025-09-21T02:51:25.830Z","dataSource":"api"},"intelligence":80,"speed":250,"priceInput":0,"priceOutput":0,"contextWindow":1048576,"status":"operational","modalities":["text"],"capabilities":["chat","completion"],"isActive":true,"rankScore":1,"lastUpdated":"2025-09-21T02:51:25.830Z"},{"id":"google:gemini-1-5-pro","slug":"google-gemini-1.5-pro","name":"Gemini 1.5 Pro","provider":"Google","description":"Gemini 1.5 Pro - Intelligence: 80, Speed: 187","source":"artificial-analysis","detailedSource":"api","dataLastVerified":"2025-09-21T02:51:25.652Z","dataConfidence":1,"aa":{"intelligence":80,"speed":187,"rank":2,"inputPrice":0,"outputPrice":0,"contextWindow":2097152,"category":"efficient","trend":"stable","lastUpdated":"2025-09-21T02:51:25.652Z","dataSource":"api"},"intelligence":80,"speed":187,"priceInput":0,"priceOutput":0,"contextWindow":2097152,"status":"operational","modalities":["text"],"capabilities":["chat","completion"],"isActive":true,"rankScore":2,"lastUpdated":"2025-09-21T02:51:25.652Z"},{"id":"anthropic:claude-3-5-sonnet","slug":"anthropic-claude-3-5-sonnet-20241022","name":"Claude 3.5 Sonnet","provider":"Anthropic","description":"Claude 3.5 Sonnet - Intelligence: 80, Speed: 85","source":"artificial-analysis","detailedSource":"api","dataLastVerified":"2025-09-21T02:51:25.398Z","dataConfidence":1,"aa":{"intelligence":80,"speed":85,"rank":3,"inputPrice":0.003,"outputPrice":0.015,"contextWindow":200000,"category":"balanced","trend":"stable","lastUpdated":"2025-09-21T02:51:25.398Z","dataSource":"api"},"intelligence":80,"speed":85,"priceInput":0.003,"priceOutput":0.015,"contextWindow":200000,"status":"operational","modalities":["text"],"capabilities":["chat","completion"],"isActive":true,"rankScore":3,"lastUpdated":"2025-09-21T02:51:25.398Z"}],"total":108,"limit":3,"offset":0,"page":1,"totalPages":36,"timestamp":"2025-09-23T01:30:35.437Z","dataSource":"artificial-analysis","cached":false,"duration":1718,"cacheStats":{"size":2,"entries":["{\"filters\":{},\"limit\":5,\"offset\":0}","{\"filters\":{},\"limit\":3,\"offset\":0}"]}}